4 データハンドリング – 教育測定学研究演習II
…
上記の書き方では， 元の変数の内容が変更されますが， オリジナルの変数の値を保持しておきたい場合は across()の引数.names を利用して，例えば以下のように記述します。

Code

tbl_p2 |>
  mutate(across(HP:速さ, ~{
    calculate_Hscore(.)
  }, .names = "{.col}_h"))

# A tibble: 918 × 24
   ポケモン         HP  攻撃  防御  特攻  特防  速さ type1 type2 type2有無  高さ
   <chr>         <dbl> <dbl> <dbl> <dbl> <dbl> <dbl> <chr> <chr> <chr>     <dbl>
 1 フシギダネ       45    49    49    65    65    45 くさ  どく  あり        0.7
 2 フシギソウ       60    62    63    80    80    60 くさ  どく  あり        1  
 3 フシギバナ       80    82    83   100   100    80 くさ  どく  あり        2  
 4 メガフシギバナ……    80   100   123   122   120    80 くさ  どく  あり        2.4
 5 ヒトカゲ         39    52    43    60    50    65 ほのお…… なし  なし        0.6
 6 リザード         58    64    58    80    65    80 ほのお…… なし  なし        1.1
 7 リザードン       78    84    78   109    85   100 ほのお…… ひこう…… あり        1.7
 8 メガリザードンX……    78   130   111   130    85   100 ほのお…… ドラゴン… あり        1.7
 9 メガリザードンY……    78   104    78   159   115   100 ほのお…… ひこう…… あり        1.7
10 ゼニガメ         44    48    65    50    64    43 みず  なし  なし        0.5
# ℹ 908 more rows
# ℹ 13 more variables: 重さ <dbl>, 捕獲 <dbl>, 経験値 <dbl>, なつき数値 <dbl>,
#   なつき度合 <chr>, メガ進化 <chr>, total <dbl>, HP_h <dbl>, 攻撃_h <dbl>,
#   防御_h <dbl>, 特攻_h <dbl>, 特防_h <dbl>, 速さ_h <dbl>
これにより，元の変数名それぞれに自動的に_hが付されます。 もちろん，_hの部分は好きな文字列で構いません。

“{.col}_h”の{.col}は， 文字列表示に関わるglueというパッケージが 提供する記法で，変数名を表します。

across()によって各変数に適用したい処理は， 通常の関数の使用と同様にカッコを付し，ドットを指定します。 ただし，関数の前に ~ が必要です。

各偏差値を合計した結果と「HP」などの値をそのまま合計した総合ステータスには どのような違いがあるか，モンスター分析編で検討する準備として， ここでは偏差値の合計を計算し，新たな変数h_total を作成しておきましょう。

Code

tbl_h <- tbl_p2 |>
  mutate(h_total=HP+攻撃+防御+特攻+特防+速さ)
tbl_h |> select(ポケモン, total, h_total)

# A tibble: 918 × 3
   ポケモン        total h_total
   <chr>           <dbl>   <dbl>
 1 フシギダネ        318     318
 2 フシギソウ        405     405
 3 フシギバナ        525     525
 4 メガフシギバナ    625     625
 5 ヒトカゲ          309     309
 6 リザード          405     405
 7 リザードン        534     534
 8 メガリザードンX   634     634
 9 メガリザードンY   634     634
10 ゼニガメ          314     314
# ℹ 908 more rows
